
uint8_t pencil[808] = {137, 80, 78, 71, 13, 10, 26, 10, 0, 0, 0, 13, 73, 72, 68, 82, 0, 0, 0, 18, 0, 0, 0, 18, 8, 6, 0, 0, 0, 86, 206, 142, 87, 0, 0, 0, 171, 122, 84, 88, 116, 82, 97, 119, 32, 112, 114, 111, 102, 105, 108, 101, 32, 116, 121, 112, 101, 32, 101, 120, 105, 102, 0, 0, 120, 218, 93, 80, 209, 13, 67, 33, 8, 252, 103, 138, 142, 128, 128, 138, 227, 216, 214, 38, 221, 160, 227, 247, 172, 216, 151, 247, 46, 17, 228, 14, 14, 35, 141, 207, 251, 69, 183, 137, 84, 153, 44, 87, 47, 173, 20, 6, 172, 89, 147, 142, 139, 243, 194, 202, 137, 237, 23, 87, 33, 161, 165, 51, 79, 127, 65, 64, 41, 178, 174, 178, 140, 232, 239, 224, 243, 49, 80, 45, 248, 251, 153, 167, 250, 8, 31, 15, 163, 16, 182, 161, 206, 205, 115, 89, 244, 121, 24, 169, 44, 62, 69, 77, 141, 47, 240, 227, 104, 136, 187, 249, 90, 91, 197, 103, 60, 51, 252, 84, 72, 134, 38, 101, 196, 57, 40, 138, 23, 168, 107, 71, 20, 68, 140, 202, 102, 38, 186, 26, 94, 194, 244, 5, 210, 0, 71, 64, 242, 27, 150, 213, 0, 0, 0, 6, 98, 75, 71, 68, 0, 255, 0, 255, 0, 255, 160, 189, 167, 147, 0, 0, 0, 9, 112, 72, 89, 115, 0, 0, 1, 29, 0, 0, 1, 29, 1, 13, 244, 10, 126, 0, 0, 0, 7, 116, 73, 77, 69, 7, 226, 12, 9, 17, 33, 49, 239, 5, 110, 60, 0, 0, 1, 254, 73, 68, 65, 84, 56, 203, 99, 100, 32, 19, 28, 177, 182, 230, 229, 16, 16, 176, 251, 241, 235, 215, 121, 155, 221, 187, 159, 49, 146, 99, 200, 210, 226, 90, 99, 65, 166, 191, 107, 44, 120, 57, 20, 222, 60, 120, 112, 243, 211, 189, 123, 54, 44, 164, 26, 210, 178, 112, 149, 244, 31, 38, 142, 61, 12, 210, 82, 2, 247, 111, 92, 96, 80, 100, 96, 80, 255, 252, 234, 149, 37, 73, 6, 29, 90, 28, 36, 121, 227, 255, 231, 107, 38, 14, 110, 124, 44, 44, 172, 12, 247, 255, 255, 103, 120, 115, 255, 254, 61, 222, 183, 111, 247, 48, 17, 107, 200, 209, 165, 81, 242, 34, 210, 210, 187, 99, 92, 89, 249, 46, 159, 219, 251, 235, 215, 239, 223, 12, 47, 30, 60, 120, 253, 246, 253, 151, 64, 171, 227, 199, 191, 19, 21, 70, 71, 150, 251, 73, 9, 136, 200, 110, 215, 50, 52, 211, 99, 100, 98, 98, 248, 250, 237, 31, 195, 242, 61, 63, 63, 62, 253, 204, 172, 213, 144, 155, 252, 140, 129, 129, 129, 129, 160, 65, 251, 151, 71, 40, 136, 139, 137, 110, 213, 48, 48, 213, 98, 100, 100, 100, 248, 247, 239, 47, 195, 149, 83, 199, 206, 125, 124, 241, 222, 195, 46, 105, 245, 107, 152, 58, 188, 94, 219, 191, 56, 84, 69, 76, 84, 120, 27, 186, 33, 47, 222, 188, 246, 68, 54, 132, 129, 129, 129, 129, 5, 159, 33, 162, 18, 98, 155, 52, 13, 205, 53, 25, 25, 25, 25, 254, 253, 253, 199, 112, 229, 52, 196, 16, 247, 184, 245, 175, 208, 213, 99, 53, 232, 224, 210, 96, 85, 97, 49, 177, 141, 90, 70, 200, 134, 28, 197, 105, 8, 86, 131, 32, 134, 72, 108, 210, 50, 50, 215, 128, 27, 114, 6, 191, 33, 24, 97, 180, 105, 154, 175, 133, 136, 136, 248, 102, 12, 67, 94, 227, 55, 4, 197, 69, 235, 251, 2, 204, 100, 20, 164, 247, 107, 24, 155, 113, 48, 50, 50, 50, 252, 255, 255, 159, 225, 198, 249, 83, 23, 222, 188, 122, 230, 231, 30, 191, 229, 21, 161, 216, 133, 27, 196, 46, 170, 217, 198, 205, 203, 195, 241, 231, 247, 111, 6, 86, 54, 54, 134, 107, 103, 78, 94, 125, 249, 226, 161, 143, 115, 252, 150, 167, 68, 39, 253, 105, 53, 126, 234, 87, 79, 110, 125, 249, 247, 239, 239, 255, 55, 14, 53, 255, 191, 184, 35, 255, 251, 230, 41, 65, 70, 164, 100, 31, 102, 6, 6, 6, 134, 31, 220, 26, 111, 212, 116, 205, 185, 255, 125, 188, 253, 242, 254, 157, 219, 199, 95, 61, 191, 21, 21, 144, 179, 241, 28, 41, 6, 49, 58, 123, 250, 255, 103, 96, 96, 248, 205, 192, 192, 192, 234, 111, 204, 168, 146, 215, 178, 225, 46, 57, 69, 11, 44, 140, 88, 247, 110, 223, 200, 184, 119, 59, 3, 217, 0, 0, 23, 28, 235, 109, 19, 203, 73, 168, 0, 0, 0, 0, 73, 69, 78, 68, 174, 66, 96, 130};

uint8_t crosshair[530] = {137, 80, 78, 71, 13, 10, 26, 10, 0, 0, 0, 13, 73, 72, 68, 82, 0, 0, 0, 19, 0, 0, 0, 19, 8, 6, 0, 0, 0, 114, 80, 54, 204, 0, 0, 0, 4, 115, 66, 73, 84, 8, 8, 8, 8, 124, 8, 100, 136, 0, 0, 0, 9, 112, 72, 89, 115, 0, 0, 1, 45, 0, 0, 1, 45, 1, 214, 200, 59, 32, 0, 0, 0, 25, 116, 69, 88, 116, 83, 111, 102, 116, 119, 97, 114, 101, 0, 119, 119, 119, 46, 105, 110, 107, 115, 99, 97, 112, 101, 46, 111, 114, 103, 155, 238, 60, 26, 0, 0, 1, 143, 73, 68, 65, 84, 56, 141, 189, 148, 207, 43, 4, 97, 24, 199, 191, 207, 12, 139, 200, 143, 93, 14, 36, 218, 132, 178, 17, 237, 108, 218, 255, 64, 146, 112, 115, 146, 210, 218, 36, 39, 39, 119, 55, 23, 180, 107, 166, 148, 226, 230, 130, 148, 92, 28, 156, 56, 172, 34, 173, 48, 163, 141, 146, 34, 63, 14, 14, 44, 189, 143, 131, 101, 205, 102, 102, 135, 228, 115, 123, 159, 247, 59, 223, 231, 251, 188, 111, 239, 0, 14, 80, 84, 125, 197, 137, 78, 114, 34, 2, 224, 254, 75, 51, 71, 100, 53, 107, 142, 158, 151, 1, 200, 111, 89, 60, 40, 204, 166, 37, 171, 13, 37, 170, 119, 147, 68, 227, 12, 190, 5, 168, 157, 33, 118, 9, 200, 3, 228, 72, 44, 92, 183, 241, 163, 100, 36, 161, 90, 74, 114, 87, 44, 92, 223, 11, 176, 190, 23, 110, 232, 99, 226, 1, 144, 240, 102, 75, 152, 78, 164, 158, 117, 6, 52, 35, 100, 174, 233, 219, 95, 215, 1, 205, 8, 249, 53, 163, 199, 65, 50, 49, 33, 144, 92, 183, 107, 248, 226, 146, 151, 137, 121, 204, 214, 44, 56, 31, 119, 3, 184, 217, 27, 110, 186, 178, 51, 219, 31, 244, 62, 0, 120, 76, 93, 206, 39, 20, 80, 245, 77, 16, 202, 1, 64, 48, 10, 136, 81, 65, 18, 46, 190, 138, 152, 209, 72, 132, 19, 83, 77, 160, 6, 132, 107, 34, 60, 1, 0, 3, 151, 166, 142, 193, 249, 184, 91, 209, 244, 181, 204, 36, 153, 103, 150, 170, 173, 102, 38, 51, 141, 185, 51, 228, 187, 131, 64, 73, 235, 66, 162, 212, 110, 204, 182, 217, 227, 42, 128, 61, 135, 35, 181, 247, 150, 102, 239, 5, 154, 150, 147, 175, 253, 118, 102, 57, 185, 114, 15, 65, 154, 180, 211, 152, 80, 230, 140, 81, 191, 118, 84, 9, 164, 199, 108, 159, 209, 139, 149, 57, 99, 212, 178, 137, 213, 6, 75, 34, 65, 156, 179, 164, 168, 167, 207, 0, 213, 43, 170, 190, 34, 64, 30, 8, 158, 178, 250, 198, 242, 57, 125, 224, 139, 196, 139, 10, 100, 215, 214, 179, 112, 117, 100, 158, 209, 175, 248, 238, 54, 191, 227, 127, 127, 65, 41, 108, 95, 196, 7, 111, 60, 79, 129, 221, 65, 88, 156, 92, 0, 0, 0, 0, 73, 69, 78, 68, 174, 66, 96, 130};
